<svg xmlns="http://www.w3.org/2000/svg" width="201" height="45" viewBox="0 0 201 45">
    <g fill="none" fill-rule="evenodd">
        <path fill="#FF4040" d="M3.586 14.853a.494.494 0 0 1-.158-.378V.846c0-.154.052-.283.158-.388A.528.528 0 0 1 3.974.3h2.373c.35 0 .602.154.756.462l3.612 6.468L14.348.762c.154-.308.406-.462.756-.462h2.373c.154 0 .283.052.389.158a.528.528 0 0 1 .157.388v13.629c0 .154-.052.28-.157.378a.548.548 0 0 1-.389.147H14.81a.504.504 0 0 1-.367-.158.504.504 0 0 1-.158-.367V6.831l-2.268 4.158c-.182.322-.427.483-.735.483h-1.134c-.28 0-.525-.161-.735-.483L7.166 6.831v7.644c0 .154-.052.28-.158.378A.548.548 0 0 1 6.62 15H3.974a.548.548 0 0 1-.389-.147zm27.95-.01a.504.504 0 0 1-.157-.368V.846c0-.154.049-.283.147-.388A.494.494 0 0 1 31.904.3h9.912c.154 0 .283.052.389.158a.528.528 0 0 1 .157.388v2.079c0 .154-.052.28-.157.378a.548.548 0 0 1-.389.147H35.18v2.667h6.174c.154 0 .283.052.389.157a.528.528 0 0 1 .157.389v1.911a.528.528 0 0 1-.157.389.528.528 0 0 1-.389.157H35.18v2.73h6.804c.154 0 .283.052.389.158a.528.528 0 0 1 .157.388v2.079c0 .154-.052.28-.157.378a.548.548 0 0 1-.389.147h-10.08a.504.504 0 0 1-.367-.158zm22.743.02a.422.422 0 0 1-.136-.304.56.56 0 0 1 .063-.252l4.578-6.804-4.221-6.51A.56.56 0 0 1 54.5.741c0-.112.045-.213.136-.304A.422.422 0 0 1 54.941.3h3.213c.308 0 .56.154.756.462l2.373 3.654L63.74.762c.196-.308.441-.462.735-.462h3.066c.112 0 .213.045.305.137a.422.422 0 0 1 .136.304.56.56 0 0 1-.063.252l-4.263 6.468 4.62 6.846a.56.56 0 0 1 .063.252.422.422 0 0 1-.136.305.422.422 0 0 1-.305.136H64.58c-.308 0-.553-.14-.735-.42l-2.688-3.906-2.625 3.906c-.182.28-.427.42-.735.42h-3.213a.422.422 0 0 1-.305-.136zm25.074 0a.422.422 0 0 1-.136-.304c0-.084.007-.147.021-.189L84.131.909c.14-.406.42-.609.84-.609h3.276c.42 0 .7.203.84.609L93.98 14.37a.637.637 0 0 1 .021.189.422.422 0 0 1-.136.305.422.422 0 0 1-.305.136h-2.73c-.336 0-.574-.154-.714-.462l-.756-2.037h-5.502l-.756 2.037c-.14.308-.378.462-.714.462h-2.73a.422.422 0 0 1-.305-.136zm5.387-5.512h3.738l-1.869-5.355-1.869 5.355zm21.504 5.502a.512.512 0 0 1-.147-.378V.846c0-.154.049-.283.147-.388a.494.494 0 0 1 .378-.158h2.877c.154 0 .283.052.389.158a.528.528 0 0 1 .157.388v4.977h4.956V.846c0-.154.052-.283.157-.388a.528.528 0 0 1 .389-.158h2.856c.154 0 .283.052.388.158a.528.528 0 0 1 .158.388v13.629c0 .154-.052.28-.157.378a.548.548 0 0 1-.389.147h-2.856a.548.548 0 0 1-.388-.147.494.494 0 0 1-.158-.378V9.33h-4.956v5.145c0 .154-.052.28-.157.378a.548.548 0 0 1-.389.147h-2.877a.512.512 0 0 1-.378-.147zm26.208-.01a.548.548 0 0 1-.147-.389V.846c0-.154.052-.283.157-.388a.528.528 0 0 1 .389-.158h2.856c.154 0 .283.052.388.158a.528.528 0 0 1 .158.388v8.211l5.796-8.358a.798.798 0 0 1 .714-.399h2.583c.154 0 .28.052.378.158a.548.548 0 0 1 .147.388v13.629a.522.522 0 0 1-.525.525h-2.877a.548.548 0 0 1-.388-.147.494.494 0 0 1-.158-.378V6.579l-5.796 8.022a1.038 1.038 0 0 1-.284.294c-.105.07-.248.105-.43.105h-2.583a.494.494 0 0 1-.378-.158zm39.732-.326a.47.47 0 0 1-.462.483h-3.318c-.336 0-.581-.14-.735-.42l-3.129-5.25h-1.365v5.145c0 .154-.052.28-.157.378a.548.548 0 0 1-.389.147h-2.877a.512.512 0 0 1-.378-.147.512.512 0 0 1-.147-.378V.846c0-.154.049-.283.147-.388a.494.494 0 0 1 .378-.158h2.877c.154 0 .283.052.389.158a.528.528 0 0 1 .157.388v4.977h1.176L167.375.72c.182-.28.448-.42.798-.42h3.213a.427.427 0 0 1 .441.441.39.39 0 0 1-.084.252l-3.885 6.384 4.263 6.909a.377.377 0 0 1 .063.231zm11.267.347a.422.422 0 0 1-.137-.305c0-.084.007-.147.021-.189L188.228.909c.14-.406.42-.609.84-.609h3.276c.42 0 .7.203.84.609l4.893 13.461a.637.637 0 0 1 .021.189.422.422 0 0 1-.137.305.422.422 0 0 1-.304.136h-2.73c-.336 0-.574-.154-.714-.462l-.756-2.037h-5.502l-.756 2.037c-.14.308-.378.462-.714.462h-2.73a.422.422 0 0 1-.304-.136zm5.386-5.513h3.738l-1.869-5.355-1.869 5.355z"/>
        <path fill="#000" d="M5.65 41.146a5.368 5.368 0 0 1-.938-.182c-.376-.097-.668-.243-.874-.437-.206-.194-.382-.48-.528-.856-.145-.364-.218-.819-.218-1.365v-3.24c0-.982.188-1.686.564-2.11.206-.243.416-.428.628-.556.212-.127.488-.215.828-.263.34-.049.643-.082.91-.1.267-.019.643-.028 1.129-.028.837 0 1.674.091 2.511.273v1.201c-.97-.242-1.874-.364-2.712-.364-.63 0-1.095.046-1.392.137-.297.09-.503.255-.619.491-.115.237-.173.598-.173 1.083v3.604c0 .449.064.782.192 1 .127.22.357.374.691.465.334.09.828.136 1.483.136.886 0 1.772-.115 2.658-.345v1.237c-.825.17-1.766.255-2.821.255-.607 0-1.047-.012-1.32-.036zm9.527-2.658v-3.476c0-1.068.306-1.835.919-2.302.613-.467 1.605-.7 2.976-.7 1.298 0 2.235.224 2.812.673.576.449.864 1.225.864 2.33v1.947h-5.915v1.328c0 .607.212 1.044.637 1.31.425.268 1.08.401 1.966.401.837 0 1.826-.146 2.966-.437v1.256a15.006 15.006 0 0 1-3.185.364c-2.693 0-4.04-.898-4.04-2.694zm5.933-2.602v-1.383c0-.534-.16-.901-.482-1.102-.322-.2-.87-.3-1.647-.3-.753 0-1.299.1-1.638.3-.34.2-.51.568-.51 1.102v1.383h4.277zm7.771-3.695h1.638v.947c.134-.753 1.135-1.129 3.003-1.129 1.117 0 1.96.234 2.53.7.57.468.856 1.066.856 1.794v3.621c0 .522-.076.977-.228 1.365-.152.389-.349.692-.591.91-.219.207-.52.37-.901.492-.383.121-.762.2-1.138.236-.34.037-.752.055-1.237.055a5.288 5.288 0 0 1-1.465-.191c-.443-.128-.72-.313-.829-.555v4.168h-1.638V32.19zm5.415 7.744c.334-.09.573-.258.719-.5.145-.243.218-.613.218-1.11v-3.24c0-.546-.073-.952-.218-1.22-.146-.266-.385-.445-.72-.536-.333-.091-.821-.137-1.464-.137s-1.132.046-1.465.137c-.334.09-.574.27-.72.537-.145.267-.218.673-.218 1.219v3.24c0 .485.076.852.228 1.1.152.25.397.42.737.51.34.091.825.137 1.456.137.63 0 1.113-.046 1.447-.137zm8.872-7.744h3.859c.788 0 1.42.046 1.893.137.473.09.819.245 1.037.464.206.206.34.418.4.637.061.218.091.522.091.91v.31c0 .472-.12.824-.364 1.055-.242.23-.649.406-1.219.528v.072c1.407.243 2.111.856 2.111 1.839v.527c0 .595-.118 1.059-.355 1.393-.236.333-.628.573-1.174.719-.546.145-1.31.218-2.293.218h-3.986v-8.809zm4.004 3.713c.486 0 .85-.04 1.092-.118.243-.08.407-.207.492-.383.085-.175.127-.445.127-.81v-.109c0-.327-.045-.57-.136-.728-.091-.157-.261-.27-.51-.336-.249-.067-.622-.1-1.12-.1h-2.31v2.584h2.365zm.073 3.913c.57 0 1.001-.036 1.292-.11.292-.072.492-.19.601-.354.11-.164.164-.41.164-.737v-.583c0-.303-.128-.558-.382-.764-.267-.194-.795-.291-1.584-.291h-2.53v2.839h2.44zm17.745-7.626V41h-1.638v-6.497L58.766 41h-1.638v-8.809h1.638v6.716l4.677-6.716h1.547zm8.709 8.955a5.368 5.368 0 0 1-.937-.182c-.377-.097-.668-.243-.874-.437-.206-.194-.382-.48-.528-.856-.145-.364-.218-.819-.218-1.365v-3.24c0-.982.188-1.686.564-2.11.206-.243.416-.428.628-.556.212-.127.488-.215.828-.263.34-.049.643-.082.91-.1.267-.019.643-.028 1.128-.028.838 0 1.675.091 2.512.273v1.201c-.97-.242-1.875-.364-2.712-.364-.63 0-1.095.046-1.392.137-.297.09-.504.255-.619.491-.115.237-.173.598-.173 1.083v3.604c0 .449.064.782.191 1 .128.22.358.374.692.465.334.09.828.136 1.483.136.886 0 1.772-.115 2.657-.345v1.237c-.825.17-1.765.255-2.82.255-.607 0-1.047-.012-1.32-.036zm9.855-8.955h1.638v3.658h4.332v-3.658h1.638V41h-1.638v-3.95h-4.332V41h-1.638v-8.809zm14.087 0h1.674v3.185h1.711c.752 0 1.35.055 1.793.164.443.11.767.3.974.573.206.273.309.659.309 1.156v1.82c0 1.274-1.074 1.911-3.221 1.911h-3.24v-8.809zm7.862 0h1.638V41h-1.638v-8.809zm-4.732 7.753c.352 0 .716-.048 1.092-.145.425-.11.637-.419.637-.928v-1.11c0-.352-.045-.62-.136-.801-.091-.182-.255-.31-.491-.383-.237-.072-.592-.109-1.065-.109h-1.51v3.476h1.473zm20.712-7.753V41h-1.638v-6.497L115.259 41h-1.638v-8.809h1.638v6.716l4.677-6.716h1.547zm-5.86-1.884c-.474-.418-.728-.98-.765-1.683h1.347c.085.946.534 1.42 1.347 1.42.8 0 1.25-.474 1.347-1.42h1.346c-.024.692-.276 1.25-.755 1.674-.48.425-1.125.637-1.938.637s-1.456-.209-1.93-.628zM143.359 41h-7.462v-8.809h1.638V39.8h4.35V32.19h1.638V39.8h1.238v3.458h-1.402V41zm6.68-2.512v-3.476c0-1.068.306-1.835.919-2.302.613-.467 1.605-.7 2.976-.7 1.298 0 2.235.224 2.812.673.576.449.864 1.225.864 2.33v1.947h-5.915v1.328c0 .607.212 1.044.637 1.31.425.268 1.08.401 1.966.401.837 0 1.826-.146 2.966-.437v1.256a15.006 15.006 0 0 1-3.185.364c-2.693 0-4.04-.898-4.04-2.694zm5.933-2.602v-1.383c0-.534-.16-.901-.482-1.102-.322-.2-.87-.3-1.647-.3-.753 0-1.299.1-1.638.3-.34.2-.51.568-.51 1.102v1.383h4.277zm7.771-3.695h1.638v3.658h4.332v-3.658h1.638V41h-1.638v-3.95h-4.332V41h-1.638v-8.809zm16.308 1.201h-3.094v-1.2h7.807v1.2h-3.075V41h-1.638v-7.608zm10.319-1.2h1.638v.946c.133-.753 1.134-1.129 3.003-1.129 1.116 0 1.96.234 2.53.7.57.468.855 1.066.855 1.794v3.621c0 .522-.076.977-.227 1.365-.152.389-.35.692-.592.91-.218.207-.518.37-.9.492-.383.121-.762.2-1.138.236-.34.037-.752.055-1.238.055a5.288 5.288 0 0 1-1.465-.191c-.443-.128-.719-.313-.828-.555v4.168h-1.638V32.19zm5.415 7.743c.333-.09.573-.258.718-.5.146-.243.219-.613.219-1.11v-3.24c0-.546-.073-.952-.219-1.22-.145-.266-.385-.445-.718-.536-.334-.091-.823-.137-1.466-.137s-1.131.046-1.465.137c-.333.09-.573.27-.719.537-.145.267-.218.673-.218 1.219v3.24c0 .485.076.852.228 1.1.151.25.397.42.737.51.34.091.825.137 1.456.137.63 0 1.113-.046 1.447-.137z"/>
        <path stroke="#000" stroke-linecap="square" d="M.5 22.5h200"/>
    </g>
</svg>
